…
``` r
source(paste0(root_dir,"/code/crosswalk/crosswalk_census.R"))

cvi_county <- cvi %>%
  crosswalk_census(key = "tract.census.geoid",
                   source_scale = "FIPS Code",
                   target_scale = "county.census.geoid",
                   weight_by = "area",
                   method = "weighted_mean",
                   variable = c("CVI_overall", "CVI_base_all"))
#> # A tibble: 73,057 × 44
#>    State County  `FIPS Code` `Geographic Coordinates` CVI_overall CVI_base_all
#>    <chr> <chr>   <chr>       <chr>                          <dbl>        <dbl>
#>  1 AL    Autauga 01001020100 +32.4771112,-086.4903033       0.577        0.513
#>  2 AL    Autauga 01001020200 +32.4757580,-086.4724678       0.597        0.556
#>  3 AL    Autauga 01001020300 +32.4740243,-086.4597033       0.602        0.570
#>  4 AL    Autauga 01001020400 +32.4710782,-086.4446805       0.564        0.486
#>  5 AL    Autauga 01001020500 +32.4589157,-086.4218165       0.567        0.483
#>  6 AL    Autauga 01001020600 +32.4473470,-086.4768023       0.611        0.569
#>  7 AL    Autauga 01001020700 +32.4305220,-086.4369107       0.659        0.648
#>  8 AL    Autauga 01001020801 +32.4117228,-086.5316830       0.564        0.486
#>  9 AL    Autauga 01001020802 +32.5471327,-086.5315960       0.584        0.520
#> 10 AL    Autauga 01001020900 +32.6370123,-086.5149469       0.579        0.515
#> # ℹ 73,047 more rows
#> # ℹ 38 more variables: CVI_base_health <dbl>, CVI_base_SEC <dbl>,
#> #   CVI_base_inf <dbl>, CVI_base_env <dbl>, CVI_climate_all <dbl>,
#> #   CVI_climate_health <dbl>, CVI_climate_SEC <dbl>,
#> #   CVI_climate_extremes <dbl>, flood_factor2020 <dbl>, proptax_base2020 <dbl>,
#> #   vote_turnout_2020 <dbl>, RSEI_2019 <dbl>, pesticide_crop_acre <dbl>,
#> #   DW_viol_Pb <dbl>, RSEI_stream <dbl>, impervious_area_pct <dbl>, …
```
…
``` r
ndi_reduced <- ndi %>%
  crosswalk_census(source_scale = "FIPS",
                   key = "county.census.geoid",
                   target_scale = "tract.census.geoid",
                   weight_by = "area",
                   method = "weighted_sum",
                   variable = c("NDI", "NDC")
                   )
#> # A tibble: 82,755 × 13
#>    FIPS    FID County     State     NDC     NDI NDC2NDI MY_risk tract CountyName
#>    <chr> <dbl> <chr>      <chr>   <dbl>   <dbl>   <dbl> <chr>   <chr> <chr>     
#>  1 27077     0 Lake of t… Minn… 0.00848 0.00848       1 low     4603… Lake of t…
#>  2 27077     0 Lake of t… Minn… 0.00848 0.00848       1 low     4604… Lake of t…
#>  3 27077     0 Lake of t… Minn… 0.00848 0.00848       1 low     4604… Lake of t…
#>  4 53019     1 Ferry      Wash… 0.00351 0.00351       1 low     9400… Ferry WA  
#>  5 53019     1 Ferry      Wash… 0.00351 0.00351       1 low     9701… Ferry WA  
#>  6 53019     1 Ferry      Wash… 0.00351 0.00351       1 low     9702… Ferry WA  
#>  7 53065     2 Stevens    Wash… 0.0243  0.0243        1 low     9410… Stevens WA
#>  8 53065     2 Stevens    Wash… 0.0243  0.0243        1 low     9501… Stevens WA
#>  9 53065     2 Stevens    Wash… 0.0243  0.0243        1 low     9501… Stevens WA
#> 10 53065     2 Stevens    Wash… 0.0243  0.0243        1 low     9502… Stevens WA
#> # ℹ 82,745 more rows
#> # ℹ 3 more variables: LandSQMI <chr>, afact <dbl>, tract.census.geoid <chr>
```
…
